:local i 0;
foreach dhcp in=[/ip dhcp-server lease find where server=dhcp1] do={
		#local name [/ppp active get $pppuser name]		
                           :put [/ip dhcp-server lease get $dhcp address]
        
   :set i (i + 1);
}